| 社会认知与人格实验室
…
df2[, c("P11d","P11d_r")]

## # A tibble: 8,148 × 2
##    P11d                    P11d_r
##    <dbl+lbl>                <dbl>
##  1  3 [既非愿意也非不愿意]      3
##  2  3 [既非愿意也非不愿意]      3
##  3 NA                          NA
##  4 NA                          NA
##  5 NA                          NA
##  6 NA                          NA
##  7  1 [非常愿意]                5
##  8 NA                          NA
##  9 NA                          NA
## 10 NA                          NA
## # ℹ 8,138 more rows
…
